\relax 
\providecommand\hyper@newdestlabel[2]{}
\providecommand\HyperFirstAtBeginDocument{\AtBeginDocument}
\HyperFirstAtBeginDocument{\ifx\hyper@anchor\@undefined
\global\let\oldcontentsline\contentsline
\gdef\contentsline#1#2#3#4{\oldcontentsline{#1}{#2}{#3}}
\global\let\oldnewlabel\newlabel
\gdef\newlabel#1#2{\newlabelxx{#1}#2}
\gdef\newlabelxx#1#2#3#4#5#6{\oldnewlabel{#1}{{#2}{#3}}}
\AtEndDocument{\ifx\hyper@anchor\@undefined
\let\contentsline\oldcontentsline
\let\newlabel\oldnewlabel
\fi}
\fi}
\global\let\hyper@last\relax 
\gdef\HyperFirstAtBeginDocument#1{#1}
\providecommand\HyField@AuxAddToFields[1]{}
\providecommand\HyField@AuxAddToCoFields[2]{}
\@writefile{toc}{\beamer@endinputifotherversion {3.36pt}}
\@writefile{nav}{\beamer@endinputifotherversion {3.36pt}}
\@writefile{nav}{\headcommand {\slideentry {0}{0}{1}{1/1}{}{0}}}
\@writefile{nav}{\headcommand {\beamer@framepages {1}{1}}}
\@writefile{toc}{\beamer@sectionintoc {1}{General}{2}{0}{1}}
\@writefile{nav}{\headcommand {\sectionentry {1}{General}{2}{General}{0}}}
\@writefile{nav}{\headcommand {\beamer@sectionpages {1}{1}}}
\@writefile{nav}{\headcommand {\beamer@subsectionpages {1}{1}}}
\@writefile{toc}{\beamer@subsectionintoc {1}{1}{Structure}{2}{0}{1}}
\@writefile{nav}{\headcommand {\beamer@subsectionentry {0}{1}{1}{2}{Structure}}\headcommand {\beamer@subsectionpages {2}{1}}}
\@writefile{nav}{\headcommand {\slideentry {1}{1}{1}{2/2}{Structure}{0}}}
\@writefile{nav}{\headcommand {\beamer@framepages {2}{2}}}
\@writefile{toc}{\beamer@sectionintoc {2}{Used}{3}{0}{2}}
\@writefile{nav}{\headcommand {\sectionentry {2}{Used}{3}{Used}{0}}}
\@writefile{nav}{\headcommand {\beamer@sectionpages {2}{2}}}
\@writefile{nav}{\headcommand {\beamer@subsectionpages {2}{2}}}
\@writefile{toc}{\beamer@subsectionintoc {2}{1}{Observables}{3}{0}{2}}
\@writefile{nav}{\headcommand {\beamer@subsectionentry {0}{2}{1}{3}{Observables}}\headcommand {\beamer@subsectionpages {3}{2}}}
\providecommand*\caption@xref[2]{\@setref\relax\@undefined{#1}}
\newlabel{fig:ggttt}{{\caption@xref {fig:ggttt}{ on input line 156}}{3}{Observables}{Doc-Start}{}}
\@writefile{snm}{\beamer@slide {fig:ggttt}{3}}
\newlabel{sub@fig:ggttt}{{}{3}{Observables}{Doc-Start}{}}
\@writefile{snm}{\beamer@slide {sub@fig:ggttt}{3}}
\newlabel{fig:ggttu}{{\caption@xref {fig:ggttu}{ on input line 156}}{3}{Observables}{Doc-Start}{}}
\@writefile{snm}{\beamer@slide {fig:ggttu}{3}}
\newlabel{sub@fig:ggttu}{{}{3}{Observables}{Doc-Start}{}}
\@writefile{snm}{\beamer@slide {sub@fig:ggttu}{3}}
\newlabel{fig:qqtt}{{\caption@xref {fig:qqtt}{ on input line 156}}{3}{Observables}{Doc-Start}{}}
\@writefile{snm}{\beamer@slide {fig:qqtt}{3}}
\newlabel{sub@fig:qqtt}{{}{3}{Observables}{Doc-Start}{}}
\@writefile{snm}{\beamer@slide {sub@fig:qqtt}{3}}
\newlabel{fig:ggtts}{{\caption@xref {fig:ggtts}{ on input line 156}}{3}{Observables}{Doc-Start}{}}
\@writefile{snm}{\beamer@slide {fig:ggtts}{3}}
\newlabel{sub@fig:ggtts}{{}{3}{Observables}{Doc-Start}{}}
\@writefile{snm}{\beamer@slide {sub@fig:ggtts}{3}}
\newlabel{fig::ttbar}{{1}{3}{Example processes for \texorpdfstring {$t\bar {t}$}a production.\relax }{Doc-Start}{}}
\@writefile{snm}{\beamer@slide {fig::ttbar}{3}}
\newlabel{fig:stt}{{2}{3}{Single top production in the t-channel.\relax }{Doc-Start}{}}
\@writefile{snm}{\beamer@slide {fig:stt}{3}}
\@writefile{nav}{\headcommand {\slideentry {2}{1}{1}{3/3}{Observables}{0}}}
\@writefile{nav}{\headcommand {\beamer@framepages {3}{3}}}
\@writefile{toc}{\beamer@sectionintoc {3}{The}{4}{0}{3}}
\@writefile{nav}{\headcommand {\sectionentry {3}{The}{4}{The}{0}}}
\@writefile{nav}{\headcommand {\beamer@sectionpages {3}{3}}}
\@writefile{nav}{\headcommand {\beamer@subsectionpages {3}{3}}}
\@writefile{toc}{\beamer@subsectionintoc {3}{1}{Model}{4}{0}{3}}
\@writefile{nav}{\headcommand {\beamer@subsectionentry {0}{3}{1}{4}{Model}}\headcommand {\beamer@subsectionpages {4}{3}}}
\@writefile{snm}{\beamer@slide {eqn:gamma}{4}}
\newlabel{eqn:gamma}{{4}{4}{Model}{Doc-Start}{}}
\@writefile{nav}{\headcommand {\slideentry {3}{1}{1}{4/4}{Model}{0}}}
\@writefile{nav}{\headcommand {\beamer@framepages {4}{4}}}
\@writefile{toc}{\beamer@sectionintoc {4}{Measurements of}{5}{0}{4}}
\@writefile{nav}{\headcommand {\sectionentry {4}{Measurements of}{5}{Measurements of}{0}}}
\@writefile{nav}{\headcommand {\beamer@sectionpages {4}{4}}}
\@writefile{nav}{\headcommand {\beamer@subsectionpages {4}{4}}}
\@writefile{toc}{\beamer@subsectionintoc {4}{1}{the observables}{5}{0}{4}}
\@writefile{nav}{\headcommand {\beamer@subsectionentry {0}{4}{1}{5}{the observables}}\headcommand {\beamer@subsectionpages {5}{4}}}
\@writefile{nav}{\headcommand {\slideentry {4}{1}{1}{5/5}{the observables}{0}}}
\@writefile{nav}{\headcommand {\beamer@framepages {5}{5}}}
\@writefile{toc}{\beamer@sectionintoc {5}{Model}{6}{0}{5}}
\@writefile{nav}{\headcommand {\sectionentry {5}{Model}{6}{Model}{0}}}
\@writefile{nav}{\headcommand {\beamer@sectionpages {5}{5}}}
\@writefile{nav}{\headcommand {\beamer@subsectionpages {5}{5}}}
\@writefile{toc}{\beamer@subsectionintoc {5}{1}{Implementation}{6}{0}{5}}
\@writefile{nav}{\headcommand {\beamer@subsectionentry {0}{5}{1}{6}{Implementation}}\headcommand {\beamer@subsectionpages {6}{5}}}
\@writefile{nav}{\headcommand {\slideentry {5}{1}{1}{6/6}{Implementation}{0}}}
\@writefile{nav}{\headcommand {\beamer@framepages {6}{6}}}
\@writefile{nav}{\headcommand {\slideentry {5}{1}{2}{7/7}{Implementation}{0}}}
\@writefile{nav}{\headcommand {\beamer@framepages {7}{7}}}
\@writefile{nav}{\headcommand {\slideentry {5}{1}{3}{8/8}{Implementation}{0}}}
\@writefile{nav}{\headcommand {\beamer@framepages {8}{8}}}
\@writefile{toc}{\beamer@sectionintoc {6}{The}{9}{0}{6}}
\@writefile{nav}{\headcommand {\sectionentry {6}{The}{9}{The}{0}}}
\@writefile{nav}{\headcommand {\beamer@sectionpages {6}{8}}}
\@writefile{nav}{\headcommand {\beamer@subsectionpages {6}{8}}}
\@writefile{toc}{\beamer@subsectionintoc {6}{1}{Results}{9}{0}{6}}
\@writefile{nav}{\headcommand {\beamer@subsectionentry {0}{6}{1}{9}{Results}}\headcommand {\beamer@subsectionpages {9}{8}}}
\@writefile{nav}{\headcommand {\slideentry {6}{1}{1}{9/9}{Results}{0}}}
\@writefile{nav}{\headcommand {\beamer@framepages {9}{9}}}
\@writefile{nav}{\headcommand {\slideentry {6}{1}{2}{10/10}{Results}{0}}}
\@writefile{nav}{\headcommand {\beamer@framepages {10}{10}}}
\@writefile{nav}{\headcommand {\slideentry {6}{1}{3}{11/11}{Results}{0}}}
\@writefile{nav}{\headcommand {\beamer@framepages {11}{11}}}
\@writefile{toc}{\beamer@sectionintoc {7}{The}{12}{0}{7}}
\@writefile{nav}{\headcommand {\sectionentry {7}{The}{12}{The}{0}}}
\@writefile{nav}{\headcommand {\beamer@sectionpages {9}{11}}}
\@writefile{nav}{\headcommand {\beamer@subsectionpages {9}{11}}}
\@writefile{toc}{\beamer@subsectionintoc {7}{1}{End}{12}{0}{7}}
\@writefile{nav}{\headcommand {\beamer@subsectionentry {0}{7}{1}{12}{End}}\headcommand {\beamer@subsectionpages {12}{11}}}
\@writefile{nav}{\headcommand {\slideentry {7}{1}{1}{12/12}{End}{0}}}
\@writefile{nav}{\headcommand {\beamer@framepages {12}{12}}}
\@writefile{nav}{\headcommand {\beamer@partpages {1}{12}}}
\@writefile{nav}{\headcommand {\beamer@subsectionpages {12}{12}}}
\@writefile{nav}{\headcommand {\beamer@sectionpages {12}{12}}}
\@writefile{nav}{\headcommand {\beamer@documentpages {12}}}
\@writefile{nav}{\headcommand {\def \inserttotalframenumber {12}}}
